# designed and coded by baqbaq

isobelin_1_1 = {
	slot = 1
	generic = no
	ai = yes
	potential = {
		tag = G91
	}
	has_country_shield = yes
	
	isobelin_mission_the_ladys_river = {
		icon = mission_colonize_the_west
		
		position = 2

		required_missions = {
			isobelin_mission_the_ladys_landing
		}
		provinces_to_highlight = {
			area = trollsmaw_swamp_area
			NOT = {
				owned_by = ROOT
				development = 10
			}
		}
		
		trigger = {
			trollsmaw_swamp_area = {
				type = all
				owned_by = ROOT
				development = 10
			}
			manpower = 5
		}
		effect = {
			add_manpower = -5
			trollsmaw_swamp_area = {
				add_province_modifier = { 
					name = isobelin_modifier_swamp_clearance
					duration = -1
				}
				isobelin_scripted_effect_increase_control = yes
			}
			if = {
				limit = {
					mission_completed = isobelin_mission_tower_street
				}
				country_event = {
					id = flavor_isobelin.116
					days = 720
				}
			}
		}
	}
	isobelin_mission_fort_and_walkway = {
		icon = protect_against_the_turks
		
		position = 3

		required_missions = {
			isobelin_mission_the_ladys_river
		}
		provinces_to_highlight = {
			province_id = 1042 #fort thorn
		}
		trigger = {
			1042 = {
				owned_by = ROOT
				has_great_project = {
					type = walkway_of_thorns
					tier = 1
				}
				has_fort_building_trigger = yes
				base_manpower = 6
			}
		}
		effect = {
			1042 = {
				add_province_modifier = {
					name = isobelin_modifier_widows_walkway
					duration = -1
				}
			}
			trollsmaw_swamp_area = {
				isobelin_scripted_effect_increase_control = yes
			}
			epednan_expanse_region = { discover_country = ROOT }
		}
	}
	isobelin_mission_a_rose_garden_in_the_swampland = {
		icon = mission_che_botanical_exports
		
		position = 4

		required_missions = {
			isobelin_mission_fort_and_walkway
		}
		provinces_to_highlight = {
			province_id = 1042 #fort thorn
		}
		trigger = {
			1042 = {
				owned_by = ROOT
				num_of_times_improved_by_owner = 10
				has_building = mage_tower
			}
		}
		effect = {
			ynnsmouth_area = {
				limit = {
					NOT = { is_core = ROOT }
					NOT = { is_permanent_claim = ROOT }
				}
				add_permanent_claim = ROOT
			}
			1042 = {
				add_province_modifier = {
					name = isobelin_modifier_ensnaring_thorns
					duration = -1
				}
			}
			trollsmaw_swamp_area = {
				isobelin_scripted_effect_increase_control = yes
			}
		}
	}
	isobelin_mission_control_the_troll_toll = {
		icon = mission_retake_ceuta
		
		position = 5

		required_missions = {
			isobelin_mission_a_rose_garden_in_the_swampland
		}
		provinces_to_highlight = {
			province_id = 1051 #yakni kuukus
		}
		trigger = {
			num_of_light_ship = 10
			num_of_heavy_ship = 5
			if = {
				limit = { 
					1051 = { 
						is_city = yes
						NOT = { owned_by = ROOT }
					} 
				}
				1051 = {
					owner = { 
						OR = {
							AND = {
								has_opinion = {
									value = 150
									who = ROOT
								}
								owes_favors = { 
									who = ROOT 
									value = 20 
						   		}
							}
							has_spy_network_from = {
								who = ROOT
								value = 50
							}
						}
					}
				}
				treasury = 250
			}
			else = {
				owns_core_province = 1051
			}
		}
		effect = {
			if = {
				limit = { 
					1051 = {
						is_city = yes 
						NOT = { owned_by = ROOT } 
					} 
				}
				1051 = {
					owner = { 
						country_event = { 
							id = flavor_isobelin.110 #OFFER FROM ISOBELIN
							days = 30
							random = 15
						}
					}
				}
			}
			else = {
				add_mercantilism = 5
				1051 = {
					add_province_modifier = {
						name = isobelin_modifier_upgraded_troll_toll
						duration = -1
					}
					isobelin_scripted_effect_increase_control = yes
					isobelin_scripted_effect_increase_control = yes
				}
			}
		}
	}
	isobelin_mission_up_the_ynn = {
		icon = mission_advance_to_the_dnieper
		
		position = 6

		required_missions = {
			isobelin_mission_control_the_troll_toll
		}
		provinces_to_highlight = {
			OR = {
				AND = {
					area = ynnsmouth_area
					NOT = {
						owned_by = ROOT
					}
				}
				AND = {
					province_id = 1031 #arca venaan
					NOT = {
						has_great_project = {
							type = arca_venaan
							tier = 3
						}
						has_fort_building_trigger = yes
					}
				}
				AND = {
					province_id = 1901 #arca noruin
					NOT = {
						has_great_project = {
							type = arca_venaan
							tier = 3
						}
						has_fort_building_trigger = yes
					}
				}
				AND = {
					province_id = 1028 #ynnsmouth
					has_trade_building_trigger = no
					has_dock_building_trigger = no
				}
			}
		}
		trigger = {
			1028 = {
				has_trade_building_trigger = yes
				has_dock_building_trigger = yes
			}
			ynnsmouth_area = {
				type = all
				is_state_core = ROOT
			}
			1031 = {
				has_great_project = {
					type = arca_venaan
					tier = 3
				}
				has_fort_building_trigger = yes
			}
			1901 = {
				has_great_project = {
					type = arca_noruin
					tier = 3
				}
				has_fort_building_trigger = yes
			}		
		}
		effect = {
			sarda_region = { discover_country = ROOT }
			ynnsmouth_area = {
				isobelin_scripted_effect_increase_control = yes
				add_human_minority_size_effect = yes
				add_orcish_minority_size_effect = yes
			}
			hidden_effect = {
				country_event = { 
					id = flavor_isobelin.211 #growth of ynnsmouth
					days = 3650
				}
			}
		}
	}	
}

isobelin_mission_2_1 = {
	slot = 2
	generic = no
	ai = yes
	potential = {
		tag = G91
	}
	has_country_shield = yes
	
	isobelin_mission_isobels_will = {
		#icon = secure_the_succession
		icon = mission_reign_of_women
		
		position = 3

		required_missions = {
			isobelin_mission_the_dream_of_a_city
		}
		provinces_to_highlight = {
			OR = {
				AND = {
					area = coast_of_isobel_area
					local_autonomy = 1
				}
				AND = {
					is_capital_of = ROOT
					has_courthouse_building_trigger = no
					has_tax_building_trigger = no
				}
			}
		}
		trigger = {
			coast_of_isobel_area = {
				type = all
				NOT = { 
					local_autonomy = 1
				}
				has_courthouse_building_trigger = yes
				has_tax_building_trigger = yes
			}
			NOT = { has_ruler = "Isobel sl Isobelin" }
			estate_loyalty = {
				estate = estate_nobles 
				loyalty = 40
			}
			estate_loyalty = {
				estate = estate_church 
				loyalty = 40
			}
			estate_loyalty = {
				estate = estate_burghers 
				loyalty = 40
			}
			estate_loyalty = {
				estate = estate_adventurers 
				loyalty = 40
			}
			estate_loyalty = {
				estate = estate_mages 
				loyalty = 40
			}
		}
		effect = {
			change_government_reform_progress = 50
			add_country_modifier = {
				name = isobelin_modifier_the_widows_will
				duration = 3650
			}
		}
	}
	isobelin_mission_found_mawgate_prison = {
		icon = defend_the_city
		
		position = 4

		required_missions = {
			isobelin_mission_isobels_will
		}
		provinces_to_highlight = {
			province_id = 1034 #widow's walk
		}
		trigger = {
			OR = {
				faction_in_power = mr_aristocrats
				AND = {
					NOT = {
						faction_in_power = mr_aristocrats
					}
					faction_influence = {
						faction = mr_aristocrats
						influence = 30
					}
					mil_power = 50
				}
				AND = {
					NOT = {
						faction_influence = {
							faction = mr_aristocrats
							influence = 30
						}
					}
					mil_power = 100
				}
			}
			OR = {
				inquisitor = 2
				spymaster = 2
				any_owned_province = {
					unrest = 0
				}
			}
			num_of_owned_provinces_with = {
				value = 10
				has_courthouse_building_trigger = yes
			}
			1034 = {
				owned_by = ROOT
				has_manpower_building_trigger = yes
			}
		}
		effect = {
			1034 = {
				add_province_modifier = {
					name = isobelin_modifier_widows_keep
					duration = -1
				}
			}
			add_country_modifier = {
				name = isobelin_modifier_mawgate_prison
				duration = -1
			}
			hidden_effect = {
				1034 = { 
					province_event = { 
						id = flavor_isobelin.117
						days = 1825
					} 
				}
			}
		}
	}
	isobelin_mission_cultivate_cult_contacts = {
		icon = mission_market_place_with_asian_traders
		
		position = 6

		required_missions = {
			isobelin_mission_control_the_troll_toll
		}
		provinces_to_highlight = {
			all_capital_provinces = {
				owner = { 
					religion = death_cult_of_cheshosh	
				}				
			}
		}
		trigger = {
			num_of_light_ship = 20
			1528 = { #Northern Reaper's Coast, Cheshomar trade note
				trade_share = {
					country = ROOT
					share = 5
				}
			}
			OR = {
				has_estate_privilege = estate_burghers_private_trade_fleets
				has_estate_privilege = estate_burghers_admirals
				faction_in_power = mr_traders
			}			
			if = {
				limit = { 
					any_known_country = { 
						religion = death_cult_of_cheshosh 
					}
				}
				any_known_country = { 
					religion = death_cult_of_cheshosh
					has_spy_network_from = {
						who = ROOT
						value = 50
					}
				}
			}
		}
		effect = {
			country_event = { 
				id = flavor_isobelin.115 #Deal makers and death cultists
			}
		}
	}		
}

isobelin_3_1 = {
	slot = 3
	generic = no
	ai = yes
	potential = {
		tag = G91
	}
	has_country_shield = yes
	
	isobelin_mission_the_ladys_landing = {
		icon = mission_unite_coromandel
		
		position = 1

		required_missions = {

		}
		provinces_to_highlight = {
			area = coast_of_isobel_area
			NOT = {
				owned_by = G41 #jayek
				AND = {
					owned_by = ROOT
					is_core = ROOT
					NOT = { owned_by = G41 }
				}
			}
		}
		trigger = {
			coast_of_isobel_area = {
				type = all
				OR = {
					AND = {
						owned_by = ROOT
						is_core = ROOT
					}
					owned_by = G41 #jayek
				}
			}
			if = {
				limit = { exists = G41 }
				G41 = {
					OR = {
						is_subject_of = ROOT
						AND = {
							has_opinion = {
								who = ROOT
								value = 125
							}
							is_subject = no #ADDED to prevent scooping someone else's subject
						}
					}
				}
			}
		}
		effect = {
			country_event = { 
				id = flavor_isobelin.100 #the islanders
				days = 30
			}
			set_capital = 1036
			trollsmaw_swamp_area = {
				add_permanent_claim = ROOT
			}
			every_owned_province = {
				limit = {
					area = coast_of_isobel_area
				}
				add_province_modifier = {
					name = isobelin_modifier_complete_control
					duration = -1
				}
			}
		}
	}
	isobelin_mission_the_dream_of_a_city = {
		icon = end_genoese_competition
		
		position = 2

		required_missions = {
			isobelin_mission_the_ladys_landing
		}
		provinces_to_highlight = {
			OR = {
				province_id = 1036
				province_id = 1035
			}
		}
		trigger = {
			AND = {
				1036 = {
					development = 15
					OR = {
						has_production_building_trigger = yes
						trade_goods = gold
					}
				}
				1035 = {
					development = 15
					OR = {
						has_production_building_trigger = yes
						trade_goods = gold
					}
				}
			}
		}
		effect = {
			if = {
				limit = { has_dlc = "Leviathan" }
				1036 = {
					add_province_modifier = {
						name = isobelin_modifier_the_dream_of_a_city
						duration = -1
					}
				}
			}
			else = {
				add_adm_power = 100
				add_dip_power = 100
				add_mil_power = 100
			}
		}
	}
	isobelin_mission_the_twin_batteries = {
		icon = invest_in_the_rich_trades
		
		position = 3

		required_missions = {
			isobelin_mission_the_dream_of_a_city
		}
		provinces_to_highlight = {
			province_id = 1035 #port isobel
		}
		trigger = {
			1035 = {
				base_manpower = 10
				has_fort_building_trigger = yes
				has_building = coastal_defence
			}
		}
		effect = {
			1035 = {
				add_province_modifier = {
					name = isobelin_modifier_twin_batteries
					duration = -1
				}
			}
		}
	}

	isobelin_mission_jayek_bridge = {
		icon = mission_defeat_jaunpur
		
		position = 4

		required_missions = {
			isobelin_mission_the_twin_batteries
		}
		provinces_to_highlight = {
			area = coast_of_isobel_area
			devastation = 1
		}
		trigger = {
			coast_of_isobel_area = {
				type = all
				NOT = { devastation = 1 }
			}
			crown_land_share = 40
			OR = {
				adm = 6
				ruler_has_personality = architectural_visionary_personality
			}
		}
		effect = {
			1036 = {
				add_permanent_province_modifier = {
					name = isobelin_modifier_jayek_bridge
					duration = -1
				}
			}
			1035 = {
				add_permanent_province_modifier = {
					name = isobelin_modifier_jayek_bridge
					duration = -1
				}
			}
			1952 = {
				add_permanent_province_modifier = {
					name = isobelin_modifier_jayek_bridge
					duration = -1
				}
			}
			country_event = { 
				id = flavor_isobelin.109 #BARDUR BRIDGEBUILDER
				days = 1
			}
		}
	}
	isobelin_mission_city_hall = {
		icon = mission_rb_the_bank_of_scotland
		
		position = 5

		required_missions = {
			isobelin_mission_jayek_bridge
			isobelin_mission_the_navy_yard
			isobelin_mission_found_mawgate_prison
		}
		provinces_to_highlight = {
			province_id = 1036 #isobel island
		}
		trigger = {
			stability = 3
			1036 = {
				has_building = state_house
				base_tax = 10
			}
		}
		effect = {
			add_country_modifier = {
				name = isobelin_modifier_isobelin_city_hall
				duration = -1
			}
			1036 = {
				change_trade_goods = paper
			}
			country_event = { 
				id = flavor_isobelin.113 #A CHARTER OF RIGHTS
				days = 365
			}
		}
	}
	isobelin_mission_an_awakening_city = {
		icon = return_visby_to_the_league
		
		position = 6

		required_missions = {
			isobelin_mission_city_hall
			isobelin_mission_rehabilitate_the_ruinborn
		}
		provinces_to_highlight = {
			OR = {
				AND = {
					province_id = 1036 #isobel island
					NOT = { 	
						development = 25 
					}
				}
				AND = {
					province_id = 1035 #port isobel
					NOT = { 	
						development = 25 
					}
				}
			}
		}
		trigger = {
			crown_land_share = 50

			if = {
				limit = { has_dlc = "Leviathan" }
				1036 = {
					has_great_project = {
						type = city_that_never_sleeps
						tier = 1
					}

				}
			}
			else = {
				treasury = 2500
			}

		}
		effect = {
			add_prestige = 20
			add_power_projection = {
				type = mission_rewards_power_projection
				amount = 10
			}
			if = {
				limit = { has_dlc = "Leviathan" }
				1036 = {
					remove_province_modifier = isobelin_modifier_the_dream_of_a_city
					add_province_modifier = {
						name = isobelin_modifier_an_awakening_city
						duration = -1
					}
				}
			}
			custom_tooltip = isobelin_tooltip_add_parliament_issue_welcome_new_arrivals
			#swap_non_generic_missions = yes
		}
	}	
	
}

isobelin_4_1 = {
	slot = 4
	generic = no
	ai = yes
	potential = {
		tag = G91
	}
	has_country_shield = yes

	isobelin_mission_tower_street = {
		icon = interest_of_holland
		
		position = 3

		required_missions = {
			isobelin_mission_the_dream_of_a_city
		}
		provinces_to_highlight = {
			OR = {
				AND = {
					province_id = 1036 #isobel island
					NOT = {
						has_building = marketplace
						base_production = 10
					}
				}
				is_capital_of = G95 #marlliande
				province_id = 216 # Vertesk
				province_id = 451 #nathalaire
				all_capital_provinces = { 
					owner = { 
						has_country_modifier = orcish_slaves_in_colonies
					}
				}
			}
		}
		trigger = {
			1036 = {
				has_building = marketplace
				base_production = 10
			}
			#faction_in_power = mr_traders ###potentially change due to faction change
			mission_faction_trigger = {
				faction = mr_traders
				type = dip
				value = 100
			}
			OR = {
				G95 = {
					has_opinion = {
						who = ROOT
						value = 125
					}
				}
				AND = {
					OR = {
						216 = { #vertesk
							owner = { 
								has_opinion = {
									value = 125
									who = ROOT
								}
							}
						}
						451 = { #nathalaire
							owner = { 
								has_opinion = {
									value = 125
									who = ROOT
								}
							}
						}
					}
					any_known_country = { 
						has_country_modifier = orcish_slaves_in_colonies
						has_opinion = {
							value = 125
							who = ROOT
						}
					}
				}
			}
		}
		effect = {
			mission_faction_effect = {
				faction = mr_traders
				type = dip
				value = -100
			}
			add_country_modifier = {
				name = isobelin_modifier_tower_street
				duration = -1
			}
			country_event = { 
				id = flavor_isobelin.106 #TOWER STREET AUCTION BLOCKS
				days = 365
			}
			if = {
				limit = {
					mission_completed = isobelin_mission_the_ladys_river
				}
				country_event = {
					id = flavor_isobelin.116 #swamp clearance
					days = 720
				}
			}
		}
	}	
	isobelin_mission_the_navy_yard = {
		icon = mission_shipyards_of_gujarat
		
		position = 4

		required_missions = {
			isobelin_mission_tower_street
		}
		provinces_to_highlight = {
			province_id = 1035 #port isobel
		}
		trigger = {
			1035 = {
				has_building = shipyard
				has_building = impressment_offices
			}
			OR = {
				advisor = naval_reformer
				num_of_admirals = 2
			}		
			treasury = 250
		}
		effect = {
			1035 = {
				add_province_modifier = {
					name = isobelin_modifier_the_navy_yard
					duration = -1
				}
			}
			custom_tooltip = isobelin_tooltip_add_parliament_issue_expand_navy_yard
		}
	}
	isobelin_mission_rehabilitate_the_ruinborn = {
		icon = mississippi_company
		
		position = 5

		required_missions = {
			isobelin_mission_little_isobelin
		}
		provinces_to_highlight = {

		}
		trigger = {
			OR = {
				has_ruler = "Camir of Jayekmoot"
				AND = {
					is_year = 1550
					humanist_ideas = 5
				}
			}
			stability = 1
		}
		effect = {
			add_stability = -1
			add_country_modifier = {
				name = isobelin_modifier_risen_from_ruin
				duration = -1
			}
			hidden_effect = {
				every_owned_province = {
					limit = {
						culture_is_not_ruinborn = yes
					}
					add_province_modifier = {
						name = isobelin_modifier_tolerated_ruinborn
						duration = 720
					}
				}				
			}
			custom_tooltip = isobelin_tooltip_tolerated_ruinborn
			custom_tooltip = isobelin_tooltip_add_parliament_issue_melting_pot
		}
	}	
}

isobelin_5_1 = {
	slot = 5
	generic = no
	ai = yes
	potential = {
		tag = G91
	}
	has_country_shield = yes
	
	isobelin_mission_brothers_reunited = {
		icon = mission_iroquois_haudenosaunee
		
		position = 2

		required_missions = {
			isobelin_mission_the_ladys_landing
		}
		provinces_to_highlight = {
			OR = {
				if = {
					limit = { exists = G41 } #jayek
					is_capital_of = G41
				}
				if = {
					limit = { exists = G01 } #boek
					is_capital_of = G01
				}
				else = {
					is_core = G01
				}
			}
		}
		trigger = {
			if = {
				limit = { exists = G41 } #jayek
				G41 = {
					is_subject_of = ROOT
				}
			}
			if = {
				limit = { 
					exists = G01 #boek
				}
				G01 = {
					has_spy_network_from = {
						who = ROOT
						value = 40
					}
				}
			}
			else_if = {
				limit = { 
					NOT = {
						owns = 1044
					}
				}
				1044 = {
					owner = {
						has_spy_network_from = {
							who = ROOT
							value = 40
						}					
					}
				}					
			}
			else = {
				1044 = {
					is_core = ROOT
					num_of_times_improved_by_owner = 5
				}				
			}
			army_size_percentage = 0.9
		}
		effect = {
			if = {
				limit = { 
					exists = G41
				}
				G01 = {
					every_core_province = {
						add_core = G41
					}
				}
				hidden_effect = {
					G41 = {
						add_government_reform = native_settle_down_reform #to prevent them from ditching Boek cores once conquered
					}
				}
			}
			else_if = {
				limit = {
					NOT = { exists = G41 }
					exists = G01
				}
				G01 = {
					every_core_province = {
						add_claim = ROOT
					}
				}
			}
			else = {
				every_owned_province = {
					limit = {
						culture = boek
						owned_by = ROOT
						is_core = ROOT
					}
					add_province_modifier = {
						name = isobelin_modifier_brothers_reunited
						duration = 7300
					}					
				}
			}
		}
	}
	isobelin_mission_little_isobelin = {
		icon = native_royal_marriage
		
		position = 4

		required_missions = {
			isobelin_mission_brothers_reunited
		}
		provinces_to_highlight = {
			if = {
				limit = { exists = G41 } #jayek
				is_capital_of = G41
			}
			else = {
				province_id = 1952 #jayekmoot
			}
		}
		trigger = {
			if = {
				limit = { exists = G41 }
				G41 = {
					years_in_vassalage_under = {
						who = ROOT
						years = 10
					}
					has_opinion = {
						value = 190
						who = ROOT
					}
					NOT = { num_of_cities = 11 }
				}
				dip_power = 100
			}
			else = {
				1952 = {
					owned_by = ROOT
					num_of_times_improved_by_owner = 10
				}
			}
		}
		effect = {
			if = {
				limit = { exists = G41 }
				add_dip_power = -100
				inherit = G41
				every_owned_province = {
					limit = {
						culture = boek
						is_core = G41
					}
					add_human_minority_size_effect = yes				
				}
			}
			else = {
				every_owned_province = {
					limit = {
						culture = boek
						owned_by = ROOT
						is_core = ROOT
					}
					add_base_tax = 1
					add_human_minority_size_effect = yes				
				}
			}
			add_accepted_culture = boek
			largest_increase_of_ruinborn_tolerance_effect = yes
			hidden_effect = {
				every_owned_province = {
					limit = {
						area = coast_of_isobel_area
						NOT = {
							has_province_modifier = isobelin_modifier_complete_control
						}
					}
					add_province_modifier = {
						name = isobelin_modifier_complete_control
						duration = -1
					}
				}
			}
		}
	}
	isobelin_mission_stronger_together = {
		icon = mission_brazilian_bandeirantes
		
		position = 5

		required_missions = {

		}
		provinces_to_highlight = {
			region = trollsbay_region
			owner = {
				culture_is_not_ruinborn = yes
			}
			is_capital = yes
		}
		trigger = {
			calc_true_if = {
				all_ally = {
					culture_is_not_ruinborn = yes
					capital_scope = {
						region = trollsbay_region
					}
					has_opinion = {
						value = 150
						who = ROOT
					}
					owes_favors = { 
						who = ROOT 
						value = 20 
					}
					is_at_war = no
				}
				amount = 2
			}
		}

		effect = {
			custom_tooltip = isobelin_tooltip_stronger_together
			
			random_ally = { 
				limit = {
					culture_is_not_ruinborn = yes
					capital_scope = {
						region = trollsbay_region
					}
					has_opinion = {
						value = 150
						who = ROOT
					}
					owes_favors = { 
						who = ROOT 
						value = 20 
					}
					is_at_war = no
					NOT = {
						has_country_flag = flag_isobelin_ally_2
					}
				}
				save_event_target_as = isobelin_ally_1
				set_country_flag = flag_isobelin_ally_1
			}
			random_ally = { 
				limit = {
					culture_is_not_ruinborn = yes
					capital_scope = {
						region = trollsbay_region
					}
					has_opinion = {
						value = 150
						who = ROOT
					}
					owes_favors = { 
						who = ROOT 
						value = 20 
					}
					is_at_war = no
					NOT = {
						has_country_flag = flag_isobelin_ally_1
					}
				}
				save_event_target_as = isobelin_ally_2
				set_country_flag = flag_isobelin_ally_2
			}
			add_historical_friend = event_target:isobelin_ally_1
			add_favors = { 
				who = event_target:isobelin_ally_1 
				amount = 10 
			}
			add_historical_friend = event_target:isobelin_ally_2
			add_favors = { 
				who = event_target:isobelin_ally_2
				amount = 10 
			}
			event_target:isobelin_ally_1 = {
				add_historical_friend = ROOT
				add_favors = { 
					who = ROOT 
					amount = 10 
				}
				if = {
					limit = {
						is_rival = event_target:isobelin_ally_2
					}
					force_remove_rival = event_target:isobelin_ally_2
				}
				if = {
					limit = {
						NOT = { alliance_with = event_target:isobelin_ally_2 }
					}
					create_alliance = event_target:isobelin_ally_2
				}
				add_historical_friend = event_target:isobelin_ally_2
				add_favors = { 
					who = event_target:isobelin_ally_2 
					amount = 10 
				}
			}
			event_target:isobelin_ally_2 = {
				add_historical_friend = ROOT
				add_favors = { 
					who = ROOT 
					amount = 10 
				}
				if = {
					limit = {
						is_rival = event_target:isobelin_ally_1
					}
					force_remove_rival = event_target:isobelin_ally_1
				}
				if = {
					limit = {
						NOT = { alliance_with = event_target:isobelin_ally_1 }
					}
					create_alliance = event_target:isobelin_ally_1
				}
				add_historical_friend = event_target:isobelin_ally_1
				add_favors = { 
					who = event_target:isobelin_ally_1 
					amount = 10 
				}				
			}
		}
	}
}

###second part
isobelin_1_2 = {
	slot = 1
	generic = no
	ai = yes
	potential = {
		tag = G91
		#mission_completed = isobelin_mission_an_awakening_city
	}
	has_country_shield = yes
	
	isobelin_mission_divert_trade_from_the_interior = {
		icon = mission_secure_hajj_ports
		
		position = 7

		required_missions = {
			isobelin_mission_up_the_ynn
		}
		provinces_to_highlight = {
			OR = {
				area = trollsmaw_swamp_area
				area = ynnsmouth_area
			}
			NOT = {
				owned_by = ROOT
				development = 15
				has_building = workshop
				trade_goods = gold
			}
		}
		trigger = {
			trollsmaw_swamp_area = {
				type = all
				owned_by = ROOT
				development = 15
				OR = {
					trade_goods = gold
					has_building = workshop
				}
			}
			ynnsmouth_area = {
				type = all
				owned_by = ROOT
				development = 15
				OR = {
					trade_goods = gold
					has_building = workshop
				}
			}
		}
		effect = {
			1139 = { #lower ynn trade node
				add_trade_modifier = {						
					who = ROOT
					duration = 10950
					power = 20
					key = ISOBELIN_TRADE_MODIFIER_TRADE_FROM_THE_INTERIOR
				}
			}
			trollsmaw_swamp_area = {
				add_province_modifier = {
					name = isobelin_modifier_trade_diverted_from_the_ynn
					duration = -1
				}
				isobelin_scripted_effect_increase_control = yes
			}
			ynnsmouth_area = {
				add_province_modifier = {
					name = isobelin_modifier_trade_diverted_to_lady_isobel
					duration = -1
				}				
				isobelin_scripted_effect_increase_control = yes
			}
			veykoda_region = { discover_country = ROOT }
			rzenta_region = { discover_country = ROOT }
			dolindha_region = { discover_country = ROOT }
		}
	}
	isobelin_mission_from_the_rivers_to_the_bay = {
		icon = mission_ynnic_knights
		
		position = 8

		required_missions = {
			isobelin_mission_divert_trade_from_the_interior
		}
		provinces_to_highlight = {
			OR = {
				if = {
					limit = {
						ROOT = {
							NOT = {
								any_ally = { 
									capital_scope = {
										superregion = ynn_superregion
									}
									culture_is_not_ruinborn = yes
								} 
							}							
						}
					}
					superregion = ynn_superregion
					owner = {
						culture_is_not_ruinborn = yes
						NOT = { alliance_with = ROOT }
					}					
				}
				if = {
					limit = {
						ROOT = {
							NOT = {
								any_ally = { 
									capital_scope = {
										superregion = ynn_superregion
									}
									culture_is_ruinborn = yes
								} 
							}							
						}
					}
					superregion = ynn_superregion
					owner = {
						culture_is_ruinborn = yes
						NOT = { alliance_with = ROOT }
					}					
				}
			}
		}
		trigger = { #### changed to alliances because transferring trade doesn't work (yet)
			any_known_country = {
				capital_scope = {
					superregion = ynn_superregion
				}
				alliance_with = ROOT
				culture_is_not_ruinborn = yes
			}
			any_known_country = {
				capital_scope = {
					superregion = ynn_superregion
				}
				alliance_with = ROOT
				culture_is_ruinborn = yes 
			}
			1028 = { #ynnsmouth
				province_has_center_of_trade_of_level = 2
			}
		}
		effect = {
			1028 = { #ynnsmouth
				add_center_of_trade_level = -1
			}
			1042 = { #fort thorn
				center_of_trade = 1
			}
			1139 = { #lower ynn trade node
				add_trade_modifier = {						
					who = ROOT
					duration = -1
					power = 30
					key = ISOBELIN_TRADE_MODIFIER_YNN_MONOPOLY_LOWER_YNN
				}
			}
			1847 = { #epedna trade node
				add_trade_modifier = {						
					who = ROOT
					duration = -1
					power = 30
					key = ISOBELIN_TRADE_MODIFIER_YNN_MONOPOLY_EPEDNA
				}
			}
			ynnsmouth_area = {			
				isobelin_scripted_effect_increase_control = yes
			}
		}
	}
	isobelin_mission_hostile_takeover = {
		icon = mission_sponsor_piracy
		
		position = 9

		required_missions = {
			isobelin_mission_isobelin_stock_exchange
			isobelin_mission_divert_trade_from_the_interior
		}
		provinces_to_highlight = {

		}
		trigger = {
			OR = {
				1527 = { #ruined sea node
					has_privateer_share_in_trade_node = {
						who = ROOT
						share = 0.15
					}
				}
				1527 = { #ruined sea node
					trade_share = {
						country = ROOT
						share = 20
					}
				}
			}
		}
		effect = {
			if = {
				limit = {
					exists = G99 #DTC
				}
				add_casus_belli = {
					target = G99
					type = cb_trade_war
					months = 1200
				}
			}
			else = {
				1527 = {
					add_trade_modifier = {						
						who = ROOT
						duration = 3650
						power = 15
						key = ISOBELIN_TRADE_MODIFIER_OUTLASTED_DTC
					}	
				}			
			}
			if = {
				limit = {
					exists = G98 #CTC
				}
				add_casus_belli = {
					target = G98
					type = cb_trade_war
					months = 1200
				}
			}
			else = {
				1527 = {
					add_trade_modifier = {						
						who = ROOT
						duration = 3650
						power = 15
						key = ISOBELIN_TRADE_MODIFIER_OUTLASTED_CTC
					}	
				}			
			}
			if = {
				limit = {
					exists = G90 #Asraport
				}
				add_casus_belli = {
					target = G90
					type = cb_trade_war
					months = 1200
				}
			}
			else = {
				1527 = {
					add_trade_modifier = {						
						who = ROOT
						duration = 3650
						power = 15
						key = ISOBELIN_TRADE_MODIFIER_OUTLASTED_ASRAPORT
					}	
				}			
			}
		}
	}
	isobelin_mission_crashing_the_concord = {
		icon = mission_rb_monopolize_the_channel
		
		position = 10

		required_missions = {
			isobelin_mission_hostile_takeover
		}
		provinces_to_highlight = {

		}
		trigger = {
			if = {
				limit = { 
					H33 = { #cestirmark
						exists = yes
						NOT = { is_subject_of = ROOT }
					}
				}
				H33 = {
					subsidised_percent_amount = { 
						value = 0.6
					}
					has_spy_network_from = {
						who = ROOT
						value = 20
					}
				}	
			}
			else = {
				cestirmark_area = {
					type = all
					OR = {
						country_or_non_sovereign_subject_holds = ROOT
						owner = {
							OR = {
								tag = H36
								tag = H38
								tag = G95
								tag = G96
							}
						}
					}
				}
			}
			if = {
				limit = { 
					H36 = { #valorpoint
						exists = yes
						NOT = { is_subject_of = ROOT }
					}
				}
				H36 = {
					subsidised_percent_amount = { 
						value = 0.6
					}
					has_spy_network_from = {
						who = ROOT
						value = 20
					}
				}	
			}
			else = {
				valorpoint_area = {
					type = all
					OR = {
						country_or_non_sovereign_subject_holds = ROOT
						owner = {
							OR = {
								tag = H33
								tag = H38
								tag = G95
								tag = G96
							}
						}
					}
				}
			}
			if = {
				limit = { 
					H38 = { #zanlib
						exists = yes
						NOT = { is_subject_of = ROOT }
					}
				}
				H38 = {
					subsidised_percent_amount = { 
						value = 0.6
					}
					has_spy_network_from = {
						who = ROOT
						value = 20
					}
				}	
			}
			else = {
				zanlib_area = {
					type = all
					OR = {
						country_or_non_sovereign_subject_holds = ROOT
						owner = {
							OR = {
								tag = H33
								tag = H36
								tag = G95
								tag = G96
							}
						}
					}
				}
			}
			if = {
				limit = { 
					G96 = { #thilvis
						exists = yes
						NOT = { is_subject_of = ROOT }
					}
				}
				G96 = {
					subsidised_percent_amount = { 
						value = 0.6
					}
					has_spy_network_from = {
						who = ROOT
						value = 20
					}
				}	
			}
			else = {
				thilvis_area = {
					type = all
					OR = {
						country_or_non_sovereign_subject_holds = ROOT
						owner = {
							OR = {
								tag = H33
								tag = H36
								tag = H38
								tag = G95
							}
						}
					}
				}
			}
			if = {
				limit = { 
					G95 = { #marlliande
						exists = yes
						NOT = { is_subject_of = ROOT }
					}
				}
				G95 = {
					subsidised_percent_amount = { 
						value = 0.6
					}
					has_spy_network_from = {
						who = ROOT
						value = 20
					}
				}	
			}
			else = {
				marlliande_area = {
					type = all
					OR = {
						country_or_non_sovereign_subject_holds = ROOT
						owner = {
							OR = {
								tag = H33
								tag = H36
								tag = H38
								tag = G96
							}
						}
					}
				}
			}
		}
		effect = {
			if = {
				limit = { 
					H33 = {
						exists = yes
						is_subject = no
					}
				}
				H33 = {
					country_event = {
						id = flavor_isobelin.205
					}
				}
			}
			if = {
				limit = { 
					H36 = {
						exists = yes
						is_subject = no
					}
				}
				H36 = {
					country_event = {
						id = flavor_isobelin.205
					}
				}
			}
			if = {
				limit = { 
					G95 = {
						exists = yes
						is_subject = no
					}
				}
				G95 = {
					country_event = {
						id = flavor_isobelin.205
					}
				}
			}
			if = {
				limit = { 
					H38 = {
						exists = yes
						is_subject = no
					}
				}
				H38 = {
					country_event = {
						id = flavor_isobelin.205
					}
				}
			}
			if = {
				limit = { 
					G96 = {
						exists = yes
						is_subject = no
					}
				}
				G96 = {
					country_event = {
						id = flavor_isobelin.205
					}
				}
			}
		}
	}
	isobelin_mission_a_concord_united = {
		icon = friends_in_high_places
		
		position = 11

		required_missions = {
			isobelin_mission_crashing_the_concord
		}
		provinces_to_highlight = {
			region = trollsbay_region
			NOT = { 
				owned_by = ROOT
				is_state_core = ROOT
			}
		}
		trigger = {
			trollsbay_region = {
				type = all
				owned_by = ROOT
				is_state_core = ROOT
			}
		}
		effect = {
			colonial_noruin = {
				isobelin_scripted_effect_increase_control = yes
			}
			trollsbay_region = {
				isobelin_scripted_effect_increase_control = yes
				isobelin_scripted_effect_increase_control = yes
			}
			cestirmark_area = {
				isobelin_scripted_effect_increase_control = yes
			}
			marlliande_area = {
				isobelin_scripted_effect_increase_control = yes
			}
			valorpoint_area = {
				isobelin_scripted_effect_increase_control = yes
			}
			thilvis_area = {
				isobelin_scripted_effect_increase_control = yes
			}
			zanlib_area = {
				isobelin_scripted_effect_increase_control = yes
			}
		}
	}	
}

isobelin_2_2 = {
	slot = 2
	generic = no
	ai = yes
	potential = {
		tag = G91
		#mission_completed = isobelin_mission_an_awakening_city
	}
	has_country_shield = yes
	
	isobelin_mission_the_isobelin_tribune = {
		icon = subiaco_press
		
		position = 7

		required_missions = {
			isobelin_mission_an_awakening_city
		}
		provinces_to_highlight = {
			OR = {
				AND = {
					province_id = 1036 #isobel island
					NOT = {
						base_tax = 15
					}
				}
				if = {
					limit = { exists = H65 } #tellumtir
					is_capital_of = H65
				}
				else_if = {
					limit = { exists = H64 } #bardswood band
					is_capital_of = H64
				}
				else = {
					province_id = 417 #TELLUM!
				}
			}
		}
		trigger = {
			has_institution = printing_press
			1036 = {
				base_tax = 15
			}
			if = {
				limit = { exists = H65 } #tellumtir
				H65 = {
					OR = {
						AND = {
							has_opinion = {
								value = 150
								who = ROOT
							}
							owes_favors = { 
								who = ROOT 
								value = 20 
							}
						}
						has_spy_network_from = {
							who = ROOT
							value = 50
						}
					}	
				}
			}
			else_if = {
				limit = { exists = H64 } #bardswood band
				H64 = {
					OR = {
						AND = {
							has_opinion = {
								value = 150
								who = ROOT
							}
							owes_favors = { 
								who = ROOT 
								value = 20 
							}
						}
						has_spy_network_from = {
							who = ROOT
							value = 50
						}
					}	
				}				
			}
			else = {
				417 = { #tell 'em
					owner = { 
						OR = {
							AND = {
								has_opinion = {
									value = 150
									who = ROOT
								}
								owes_favors = { 
									who = ROOT 
									value = 20 
						   		}
							}
							has_spy_network_from = {
								who = ROOT
								value = 50
							}
						}
					}					
				}
			}
		}
		effect = {
			add_country_modifier = {
				name = isobelin_modifier_penny_press
				duration = -1
			}
		}
	}
	isobelin_mission_isobelin_stock_exchange = {
		icon = mission_african_gold
		
		position = 8

		required_missions = {
			isobelin_mission_divert_trade_from_the_interior
			isobelin_mission_the_port_authority
		}
		provinces_to_highlight = {

		}
		trigger = {
			trade_goods_produced_amount = {
				trade_goods = paper
				amount = 5
			}
			###add transfer_trade opinion modifier if it ever works 
			trade_efficiency = 0.75
			1519 = { #trollsbay trade node
				trade_node_value = 60
			}
		}
		effect = {
			1036 = {
				if = {
					limit = {
						has_building = marketplace
					}
					remove_building = marketplace
				}
				if = {
					limit = {
						has_building = trade_depot
					}
					remove_building = trade_depot
				}
				add_building = stock_exchange
			}
			add_country_modifier = {
				name = isobelin_modifier_financial_dominance
				duration = -1
			}
		}
	}
	isobelin_mission_black_on_black_in_little_bulwar = {
		icon = mission_gujarati_textiles
		
		position = 10

		required_missions = {
			isobelin_mission_the_five_wards
		}
		provinces_to_highlight = {
			province_id = 1033 #trasilden
		}
		trigger = {
			1033 = {
				has_dock_building_trigger = yes
				has_trade_building_trigger = yes
				has_local_modifier_value = {
					which = trade_goods_size
					value = 3
				}
			}
			max_sailors = 20000
			OR = {
				has_ruler = "Azdahak 'the Black'"
				has_leader = "Azdahak 'the Black'"
				navy_tradition = 40
			}
			OR = {
				if = {
					limit = { 
						exists = H38
					}
					H38 = { 
						has_opinion = {
							value = 150
							who = ROOT
						}
						owes_favors = { 
							who = ROOT 
							value = 25 
						}
					}					
				}
				else = {
					calc_true_if = {
						all_owned_province = {
							culture = zanlibi
							development = 20
						}
						amount = 3
					}
				}
				if = {
					limit = { 
						exists = G92
					}
					G92 = { 
						has_opinion = {
							value = 150
							who = ROOT
						}
						owes_favors = { 
							who = ROOT 
							value = 25 
						}
					}					
				}
				else = {
					calc_true_if = {
						all_owned_province = {
							culture = abtazari
							development = 20
						}
						amount = 3
					}
				}							
			}
		}
		effect = {
			1033 = {
				change_trade_goods = cloth
				if = {
					limit = { NOT = { has_building = textile } }
					add_building = textile
				}
			}
			define_advisor = {
    			type = court_mage
    			skill = 3
   				culture = zanlibi
    			religion = old_bulwari_sun_cult
				discount = yes
			}
		}
	}
}

isobelin_3_2 = {
	slot = 3
	generic = no
	ai = yes
	potential = {
		tag = G91
		#mission_completed = isobelin_mission_an_awakening_city
	}
	has_country_shield = yes
	
	isobelin_mission_the_port_authority = {
		icon = renaissance_city
		
		position = 7

		required_missions = {
			isobelin_mission_an_awakening_city
		}
		provinces_to_highlight = {
			province_id = 1036 #isobel island
		}
		trigger = {
			1036 = {
				province_has_center_of_trade_of_level = 3
				base_production = 15
				province_trade_power = 125
				is_strongest_trade_power = ROOT #trollsbay node
			}
			mercantilism = 20
		}
		effect = {
			1035 = { #port isobel
				center_of_trade = 1
			}
			add_country_modifier = {
				name = isobelin_modifier_the_port_authority
				duration = -1
			}
		}
	}
	isobelin_mission_the_five_wards = {
		icon = mission_claim_the_canaries
		
		position = 9

		required_missions = {
			isobelin_mission_the_port_authority
			isobelin_mission_isobelin_stock_exchange
			isobelin_mission_the_garment_quarter
		}
		provinces_to_highlight = {
			area = coast_of_isobel_area
		}
		trigger = {
			development_in_provinces = {
				value = 150
				area = coast_of_isobel_area
			}
			crown_land_share = 70
			OR = {
				full_idea_group = economic_ideas
				full_idea_group = plutocracy_ideas
				full_idea_group = infrastructure_ideas
			}
		}
		effect = {
			if = {
				limit = {
					government_rank = 2
				}
				change_government_reform_progress = 100
			}
			else = {
				set_government_rank = 2
			}
		}
	}
	isobelin_mission_the_jaybean_roastery = {
		icon = industrialized_rhineland
		
		position = 10

		required_missions = {
			isobelin_mission_the_five_wards
		}
		provinces_to_highlight = {
			OR = {
				province_id = 1952 #jayekmoot
				AND = {
					continent = north_america
					trade_goods = livestock
					OR = {
						country_or_non_sovereign_subject_holds = ROOT
						owner = {
							alliance_with = ROOT
						}
					}
				}
				AND = {
					continent = north_america
					trade_goods = sugar
					OR = {
						country_or_non_sovereign_subject_holds = ROOT
						owner = {
							alliance_with = ROOT
						}
					}
				}
			}
			
		}
		trigger = {
			1952 = {
				has_building = mage_tower
			}
			AND = {
				OR = {
					livestock = 1
					any_subject_country = { livestock = 1 }
					any_ally = { livestock = 1 }
				}
				OR = {
					sugar = 1
					any_subject_country = { sugar = 1 }
					any_ally = { sugar = 1 }
				}
			}
			OR = {
				employed_advisor = {
					culture = boek
				}
				AND = {
					high_tolerance_ruinborn_race_trigger = yes
					OR = {
						advisor = natural_scientist
						advisor = trader	
					}
				}
			}

		}
		effect = {
			1952 = {
				change_trade_goods = coffee
				if = {
					limit = { NOT = { has_building = plantations } }
					add_building = plantations
				}
			}
			add_country_modifier = {
				name = isobelin_modifier_a_cup_of_jay
				duration = -1
			}
			add_estate_loyalty_modifier = {
				estate = estate_mages
				desc = isobelin_estate_loyalty_a_cup_of_jay
				loyalty = 5
				duration = -1
			}
		}
	}
	isobelin_mission_an_arising_city = {
		icon = reclaim_the_ducal_lands
		
		position = 11

		required_missions = {
			isobelin_mission_black_on_black_in_little_bulwar
			isobelin_mission_the_racks
		}
		provinces_to_highlight = {
			area = coast_of_isobel_area
		}
		trigger = {
			1036 = {
				development = 50
			}
			development_in_provinces = {
				value = 150
				area = coast_of_isobel_area
			}
			mercantilism = 50
			absolutism = 50
			if = {
				limit = { has_dlc = "Leviathan" }
				1036 = {
					has_great_project = {
						type = city_that_never_sleeps
						tier = 2
					}
				}
			}
			else = {
				treasury = 2500
			}			
			
		}
		effect = {
			if = {
				limit = { has_dlc = "Leviathan" }
				1036 = {
					remove_province_modifier = isobelin_modifier_an_awakening_city
					add_province_modifier = {
						name = isobelin_modifier_an_arising_city
						duration = -1
					}
				}
			}
			add_prestige = 30
			add_power_projection = {
				type = mission_rewards_power_projection
				amount = 15
			}
			hidden_effect = {
				country_event = { 
					id = flavor_isobelin.208 #AN ECCENTRIC MAGNATE
					days = 30
				}			
			}
			#swap_non_generic_missions = yes
		}
	}	
}

isobelin_4_2 = {
	slot = 4
	generic = no
	ai = yes
	potential = {
		tag = G91
		#mission_completed = isobelin_mission_an_awakening_city
	}
	has_country_shield = yes
	
	isobelin_mission_thornsway = {
		#icon = promote_the_carnevale
		icon = mission_harem
		
		position = 7

		required_missions = {
			isobelin_mission_an_awakening_city
		}
		provinces_to_highlight = {

		}
		trigger = {
			OR = {
				artist = 3
				adm_power = 150
				ruler_has_personality = patron_of_arts_personality #ADDED PATRON OF ARTS PERSONALITY TRIGGER
			}
			treasury = 250
			prestige = 50
			has_estate_privilege = estate_burghers_patronage_of_the_arts
		}
		effect = {
			add_treasury = -250
			if = {
				limit = {
					NOT = { artist = 3 }
				}
				add_adm_power = -150
			}
			if = {
				limit = {
					NOT = {
						ruler_has_personality = patron_of_arts_personality
						ruler_has_max_personalities = yes
					}
				}
				add_ruler_personality = patron_of_arts_personality ####ADDED RULER PERSONALITY PATRON OF THE ARTS
			}
			add_country_modifier = { 
				name = isobelin_modifier_thornsway
				duration = -1
			}
		}
	}
	isobelin_mission_the_garment_quarter = {
		icon = mission_guarded_market
		
		position = 8

		required_missions = {
			isobelin_mission_thornsway
		}
		provinces_to_highlight = {
			OR = {
				province_id = 115 # Ioriellen
			}
		}
		trigger = {
			1035 = {
				province_trade_power = 25
			}
			trader = 3
			OR = {
				innovativeness = 40
				115 = {
					if = {
						limit = { 
							owner = { 
								is_subject = yes
							}							
						}
						owner = {
							overlord = {
								has_spy_network_from = {
									who = ROOT
									value = 50
								}								
							}
						}	
					}
					else = {
						owner = { 
							has_spy_network_from = {
								who = ROOT
								value = 50
							}
						}
					}					
				}				
			}
		}
		effect = {
			1035 = {
				change_trade_goods = silk
			}
			country_event = { 
				id = flavor_isobelin.200 #the tailor's apprentice
				days = 1
			}			
		}
	}
	isobelin_mission_the_stacks = {
		icon = mission_early_game_buildings
		
		position = 9

		required_missions = {
			isobelin_mission_bring_the_hyenas_to_heel
		}
		provinces_to_highlight = {
			OR = {
				owned_by = G96 #thilvis
				AND = {
					continent = north_america
					culture_group = halfling
				}
			}
		}
		trigger = {
			OR = {
				G96 = {
					has_opinion = {
						value = 150
						who = ROOT
					}
				}
				calc_true_if = {
					all_owned_province = {
						culture_group = halfling
						development = 20
					}
					amount = 2
				}
			}
		}
		effect = {
			add_treasury = -250
			1036 = {
				add_province_modifier = { 
					name = isobelin_modifier_the_stacks
					duration = -1
				}
			}
			medium_increase_of_halfling_tolerance_effect = yes
		}
	}
	isobelin_mission_the_racks = {
		icon = prosperity_for_all
		
		position = 10

		required_missions = {
			isobelin_mission_the_stacks
			isobelin_mission_the_five_wards
		}
		provinces_to_highlight = {
			province_id = 1958 #smallmouth
		}
		trigger = {
			1958 = {
				has_tax_building_trigger = yes
				has_manpower_building_trigger = yes
				base_tax = 12
			}
			estate_loyalty = {
				estate = estate_nobles
				loyalty = 65
			}
			high_tolerance_halfling_race_trigger = yes
			OR = {
				faction_in_power = mr_aristocrats
				AND = {
					NOT = {
						faction_in_power = mr_aristocrats
					}
					faction_influence = {
						faction = mr_aristocrats
						influence = 30
					}
					mil_power = 50
				}
				AND = {
					NOT = {
						faction_influence = {
							faction = mr_aristocrats
							influence = 30
						}
					}
					mil_power = 100
				}
			}
		}
		effect = {
			1958 = {
				change_trade_goods = tobacco
				add_building = plantations
				add_halfling_minority_size_effect = yes
			}
			if = {
				limit = { 
					NOT = {
						faction_in_power = mr_aristocrats
					}
					faction_influence = {
						faction = mr_aristocrats
						influence = 30
					}
				}
				add_mil_power = -50
			}
			if = {
				limit = { 
					NOT = {
						faction_influence = {
							faction = mr_aristocrats
							influence = 30
						}
					}
				}
				add_mil_power = -100
			}
		}
	}
	isobelin_mission_dueling_veridicals = { #changed position
		icon = mission_religious
		
		position = 11

		required_missions = {
			
			isobelin_mission_the_question_of_slavery
		}
		provinces_to_highlight = {
			OR = {
				if = {
					limit = { 
						Z97 = { #Ravelian State
							exists = yes
						}
					}
					owner = {
						tag = Z97
					}	
				}
				else = {		
					owner = {
						religion = ravelian
					}
				}
				if = {
					limit = { 
						H33 = { #cestirmark
							exists = yes
						}
					}
					owner = {
						tag = H33
					}	
				}
				else = {
					area = cestirmark_area
				}
			}
		}
		trigger = {
			papal_influence = 20
			if = {
				limit = { 
					H33 = { #cestirmark
						exists = yes
						is_subject = no
					}
				}
				H33 = {
					OR = {
						AND = {
							is_rival = ROOT
							OR = {
								has_opinion_modifier = {
									who = ROOT
									modifier = insulted
								}	
								has_opinion_modifier = {
									who = ROOT
									modifier = scornfully_insulted
								}
							}
						}
						has_opinion = {
							value = 150
							who = ROOT
						}
					}
				}
				
			}
			else = {
				1019 = {  #Vincenton
					country_or_non_sovereign_subject_holds = ROOT
				}
			}
			if = {
				limit = { 
					Z97 = { #Ravelian State
						exists = yes
					}
				}
				Z97 = {
					has_opinion = {
						value = 150
						who = ROOT
					}
					owes_favors = { 
						who = ROOT 
						value = 25
					}					
				}
			}
			else = {
				calc_true_if = {
					amount = 2
					all_known_country = {
						religion = ravelian
						has_opinion = {
							value = 150
							who = ROOT
						}
						owes_favors = { 
							who = ROOT 
							value = 25
						}
					}
				}				
			}
		}
		effect = {
			1035 = { #port isobel
				add_cardinal = yes
				custom_tooltip = H33_permanent_veridical_tt
				add_province_triggered_modifier = H33_dual_archprovosts
				if = {
					limit = {
						has_building = temple
						NOT = {
							has_building = cathedral
						}
					}
					remove_building = temple
					add_building = cathedral
				}
			}
			1036 = { #isobel island
				add_cardinal = yes
				custom_tooltip = H33_permanent_veridical_tt
				add_province_triggered_modifier = H33_dual_archprovosts
				if = {
					limit = {
						has_building = temple
						NOT = {
							has_building = cathedral
						}
					}
					remove_building = temple
					add_building = cathedral
				}
			}
			add_papal_influence = -20
			# set_estate_privilege = estate_church_papal_emissary ###not in game (yet)
		}
	}
}

isobelin_5_2 = {
	slot = 5
	generic = no
	ai = yes
	potential = {
		tag = G91
		#mission_completed = isobelin_mission_an_awakening_city
	}
	has_country_shield = yes
	
	isobelin_mission_bring_the_hyenas_to_heel = {
		#icon = Burn_Wooden_Wall
		icon = fra_napoleonic_navy
		
		position = 8

		required_missions = {
			isobelin_mission_stronger_together
		}
		provinces_to_highlight = {
			OR = {
				owner = {
					tag = H38
				}
				owner = {
					tag = G92
				}
				owner = {
					tag = G90
				}
				owner = {
					tag = G98
				}
				owner = {
					tag = G99
				}
			}
		}
		trigger = {
			if = { #if zanlib, saamirses, and 2 out of 3 asraport dtc and ctc don't exist or are rivals
				limit = { 
					AND = {
						H38 = { #zanlib
							OR = {
								is_rival = ROOT
								exists = no
							}							
						}
						G92 = { #saamirses
							OR = {
								is_rival = ROOT
								exists = no
							}
						}
						calc_true_if = {
							amount = 2
							G90 = { #asraport
								OR = {
									is_rival = ROOT
									exists = no
								}
							}
							G98 = { #CTC
								OR = {
									is_rival = ROOT
									exists = no
								}
							}
							G99 = { #DTC
								OR = {
									is_rival = ROOT
									exists = no
								}
							}
						}					
					}
				}
				military_strength = {
					who = G93 #mykx
					value = 3
				}
			}
			else = { #good relations with zanlib or saamirses, or 2 out of 3 of asraport dtc ctc
				OR = {
					OR = {
						H38 = {
							has_opinion = {
								value = 150
								who = ROOT
							}
						}
						G92 = { #saamirses
							has_opinion = {
								value = 150
								who = ROOT
							}
						}	
					}
					calc_true_if = {
						amount = 2
						G90 = { #asraport
							has_opinion = {
								value = 150
								who = ROOT
							}
						}
						G98 = { #CTC
							has_opinion = {
								value = 150
								who = ROOT
							}
						}
						G99 = { #DTC
							has_opinion = {
								value = 150
								who = ROOT
							}
						}
					}				
				}				
			}
			army_size = 40
			navy_size = 40
			if = {
				limit = { has_dlc = "Golden Century" }
				has_flagship = yes
			}
			else = {
				num_of_heavy_ship = 15
			}
		}
		effect = {
			if = {
				limit = {
					exists = G93
				}
				add_casus_belli = {
					target = G93
					type = cb_insult
					months = 60
				}
			}
			random_province = {
				limit = {
					region = ruined_isles_region
					culture_group = gnollish
					NOT = { country_or_non_sovereign_subject_holds = ROOT }
					NOT = { is_core = ROOT }
				}
				add_claim = ROOT
			}
			random_province = {
				limit = {
					region = ruined_isles_region
					culture_group = gnollish
					NOT = { country_or_non_sovereign_subject_holds = ROOT }
					NOT = { is_core = ROOT }
				}
				add_claim = ROOT
			}
			random_province = {
				limit = {
					region = ruined_isles_region
					culture_group = gnollish
					NOT = { country_or_non_sovereign_subject_holds = ROOT }
					NOT = { is_core = ROOT }
				}
				add_claim = ROOT
			}
			country_event = { 
				id = flavor_isobelin.203 #The Orphan
				days = 1
			}	
			hidden_effect = {
				country_event = { 
					id = flavor_isobelin.201 #THORN TUSKS
					days = 1825
					random = 180
				}
				country_event = { 
					id = flavor_isobelin.202 #DOCKYARD DOGS
					days = 3650
					random = 365
				}		
			}
		}
	}
	isobelin_mission_the_question_of_slavery = {
		icon = mission_orc_chillin
		
		position = 10

		required_missions = {
			isobelin_mission_bring_the_hyenas_to_heel
		}
		provinces_to_highlight = {
			owner = {
				tag = H36
			}
		}
		trigger = {
			OR = {
				AND = {
					OR = {
						has_institution = enlightenment
						all_owned_province = {
							has_building = university
						}
					}
					OR = {
						low_tolerance_orcish_race_trigger = yes
						low_tolerance_half_orcish_race_trigger = yes
						medium_tolerance_orcish_race_trigger = yes
						medium_tolerance_half_orcish_race_trigger = yes
					}
				}
				AND = {
					high_tolerance_orcish_race_trigger = yes
					high_tolerance_half_orcish_race_trigger = yes
					OR = {
						has_institution = enlightenment
						ruler_has_personality = kind_hearted_personality
						ruler_has_personality = just_personality
						philosopher = 3
						theologian = 3
						all_owned_province = {
							has_building = university
						}
					}
				}
			}
			if = {
				limit = { 
					H36 = { #valorpoint
						exists = yes
					}
				}
				OR = {
					H36 = {
						has_opinion = {
							value = 150
							who = ROOT
						}
					}
					H36 = {
						NOT = {
							has_opinion = {
								value = 1
								who = ROOT
							}							
						}
						OR = {
							has_opinion_modifier = {
								who = ROOT
								modifier = insulted
							}	
							has_opinion_modifier = {
								who = ROOT
								modifier = scornfully_insulted
							}
						}
					}
				}
			}
		}
		effect = {
			country_event = { 
				id = flavor_isobelin.209 #broadside from a firebrand
			}
		}
	}	
}


### third part

isobelin_1_3 = {
	slot = 1
	generic = no
	ai = yes
	potential = {
		tag = G91
		#mission_completed = isobelin_mission_an_arising_city

	}
	has_country_shield = yes
	
	isobelin_mission_amalgamated_tinkerers_of_isobelin = {
		icon = mission_gnome_tinkering
		
		position = 12

		required_missions = {
			isobelin_mission_an_arising_city
		}
		provinces_to_highlight = {
			owned_by = ROOT
			OR = {
				coast_of_isobel_area = {
					any_province_in_state = {
						NOT = {
							has_building = counting_house
						}
					}						
				}
				if = {
					limit = {
						ROOT = {
							NOT = {
								num_of_owned_provinces_with = {
									value = 8
									has_building = counting_house
								}
							}							
						}
					}
					NOT = {
						has_building = counting_house
					}
				}
			}
		}
		trigger = {
			
			OR = {
				AND = {
					coast_of_isobel_area = {
						type = all
						has_building = counting_house
					}
					num_of_owned_provinces_with = {
						value = 8
						has_building = counting_house
					}
				}
				all_owned_province = {
					OR = {
						trade_goods = gold
						AND = {
							custom_trigger_tooltip = {
								tooltip = Y91_has_manufactory_tt
								has_manufactory_no_custom_tooltip_trigger = yes
							}
						}
					}					
				} 
			}
			if = {
				limit = { 
					has_estate = estate_artificers
				}
				OR = {
					num_of_estate_privileges = {
						estate = estate_artificers
						value = 3
					}
					faction_influence = {
						faction = mr_guilds
						influence = 60
					}
				}
			}
			else = {
				faction_influence = {
					faction = mr_guilds
					influence = 60
				}				
			}
		}
		effect = {
			mission_reward_artifice_points_2 = yes
			add_estate_loyalty_modifier = {
				estate = estate_nobles
				desc = isobelin_estate_loyalty_collective_bargaining
				loyalty = -5
				duration = -1
			}
			add_estate_loyalty_modifier = {
				estate = estate_artificers
				desc = isobelin_estate_loyalty_collective_bargaining
				loyalty = 10
				duration = -1
			}
		}
	}

}
isobelin_2_3 = {
	slot = 2
	generic = no
	ai = yes
	potential = {
		tag = G91
		#mission_completed = isobelin_mission_an_arising_city
	}
	has_country_shield = yes
	
	isobelin_mission_roscolum_university = {
		icon = mission_rb_trinity_college_dublin
		
		position = 12

		required_missions = {
			isobelin_mission_an_arising_city
		}
		provinces_to_highlight = {
			province_id = 1036 #isobel island
			NOT = { has_building = university }
		}
		trigger = {
			1036 = { 
				has_building = university
			}
			OR = {
				OR = {
					court_mage = 3
					natural_scientist = 3
					philosopher = 3
					ruler_has_personality = free_thinker_personality
					ruler_has_personality = scholar_personality
					ruler_has_personality = well_connected_personality
				}
				treasury = 500
			}
		}
		effect = {
			add_prestige_or_monarch_power = { #changed due to high late game prestige
				amount = 20
			}
			add_treasury = -500
			add_country_modifier = {
				name = isobelin_modifier_roscolum_university
				duration = -1
			}
		}
	}

}
isobelin_3_3 = {
	slot = 3
	generic = no
	ai = yes
	potential = {
		tag = G91
		#mission_completed = isobelin_mission_an_arising_city
	}
	has_country_shield = yes
	
	isobelin_mission_a_wreath_of_roses = {
		icon = develop_the_po_valley
		
		position = 12

		required_missions = {
			isobelin_mission_an_arising_city
		}
		provinces_to_highlight = {

		}
		trigger = {
			treasury = 1000
			manpower = 20
		}
		effect = {
			country_event = { 
				id = flavor_isobelin.301 #the comissioners plan
			}
		}
	}

	isobelin_mission_the_city_that_never_sleeps = {
		icon = mission_writing_book
		
		position = 13

		required_missions = {
			isobelin_mission_amalgamated_tinkerers_of_isobelin
			isobelin_mission_roscolum_university
			isobelin_mission_a_wreath_of_roses
			isobelin_mission_the_widows_park
			isobelin_mission_the_thorned_lady
		}
		provinces_to_highlight = {
			OR = {
				AND = {
					province_id = 8 #anbenncost
					higher_development_than = 1036 #isobel island
				}
				AND = {
					area = coast_of_isobel_area
					OR = {
						num_free_building_slots = 1
						has_any_oppressed_minority_trigger = yes #custom tooltip
						has_any_coexisting_minority_trigger = yes
					}
				}
			}
		}
		trigger = {
			if = {
				limit = { has_dlc = "Leviathan" }
				1036 = {
					has_great_project = {
						type = city_that_never_sleeps
						tier = 3
					}
				}
			}

			if = {
				limit = {
					any_owned_province = {
						has_any_centaur_pop_trigger = yes					
					}
				}
				high_tolerance_centaur_race_trigger = yes
			}
			if = {
				limit = { 
					any_owned_province = {
						has_any_dwarven_pop_trigger = yes					
					}
				}
				high_tolerance_dwarven_race_trigger = yes
			}
			if = {
				limit = {
					any_owned_province = {
						has_any_elven_pop_trigger = yes
					}
				}
				high_tolerance_elven_race_trigger = yes
			}
			if = {
				limit = {
					any_owned_province = {
						has_any_gnollish_pop_trigger = yes					
					}
				}
				high_tolerance_gnollish_race_trigger = yes
			}
			if = {
				limit = {
					any_owned_province = {
						has_any_gnomish_pop_trigger = yes					
					}
				}
				high_tolerance_gnomish_race_trigger = yes
			}
			if = {
				limit = { 
					any_owned_province = {
						has_any_goblin_pop_trigger = yes					
					}
				}
				high_tolerance_goblin_race_trigger = yes
			}
			if = {
				limit = {
					any_owned_province = {
						has_any_half_elven_pop_trigger = yes					
					}
				}
				high_tolerance_half_elven_race_trigger = yes
			}
			if = {
				limit = {
					any_owned_province = {
						has_any_half_orcish_pop_trigger = yes					
					}
				}
				high_tolerance_half_orcish_race_trigger = yes
			}
			if = {
				limit = { 
					any_owned_province = {
						has_any_halfling_pop_trigger = yes					
					}
				}
				high_tolerance_halfling_race_trigger = yes
			}
			if = {
				limit = {
					any_owned_province = {
						has_any_harimari_pop_trigger = yes					
					}
				}
				high_tolerance_harimari_race_trigger = yes
			}
			if = {
				limit = {
					any_owned_province = {
						has_any_harpy_pop_trigger = yes					
					}
				}
				high_tolerance_harpy_race_trigger = yes
			}
			if = {
				limit = {
					any_owned_province = {
						has_any_hobgoblin_pop_trigger = yes					
					}
				}
				high_tolerance_hobgoblin_race_trigger = yes
			}
			if = {
				limit = {
					any_owned_province = {
						has_any_human_pop_trigger = yes					
					}
				}
				high_tolerance_human_race_trigger = yes
			}
			if = {
				limit = {
					any_owned_province = {
						has_any_kobold_pop_trigger = yes					
					}
				}
				high_tolerance_kobold_race_trigger = yes
			}
			if = {
				limit = {
					any_owned_province = {
						has_any_lizardfolk_pop_trigger = yes					
					}
				}
				high_tolerance_lizardfolk_race_trigger = yes
			}
			if = {
				limit = {
					any_owned_province = {
						has_any_ogre_pop_trigger = yes					
					}
				}
				high_tolerance_ogre_race_trigger = yes
			}
			if = {
				limit = {
					any_owned_province = {
						has_any_orcish_pop_trigger = yes					
					}
				}
				high_tolerance_orcish_race_trigger = yes
			}
			if = {
				limit = { 
					any_owned_province = {
						has_any_ruinborn_pop_trigger = yes					
					}
				}
				high_tolerance_ruinborn_race_trigger = yes
			}
			if = {
				limit = {
					any_owned_province = {
						has_any_troll_pop_trigger = yes					
					}
				}
				high_tolerance_troll_race_trigger = yes
			}

			1036 = {
				higher_development_than = 8 #anbenncost
				all_province_in_state = {
					num_free_building_slots = 0
				}
			}
			hidden_trigger = {
				OR = {
					AND = {
						employed_advisor = {
							category = ADM
						}
						NOT = {
							employed_advisor = {
								category = ADM
								culture = isobeliner
							}
						}
					}
					AND = {
						employed_advisor = {
							category = DIP
						}
						NOT = {
							employed_advisor = {
								category = DIP
								culture = isobeliner
							}
						}
					}
					AND = {
						employed_advisor = {
							category = MIL
						}
						NOT = {
							employed_advisor = {
								category = MIL
								culture = isobeliner
							}
						}
					}			
				}
			}

			custom_trigger_tooltip = {
				tooltip = isobelin_tooltip_has_full_museum_zoo
				has_country_modifier = isobelin_modifier_zoo_aelantir_arboretum
				has_country_modifier = isobelin_modifier_zoo_serpentspine_spider_house
				has_country_modifier = isobelin_modifier_zoo_gentle_giants
				has_country_modifier = isobelin_modifier_zoo_ynnic_aquarium
				has_country_modifier = isobelin_modifier_zoo_cannorian_aviary
				has_country_modifier = isobelin_modifier_museum_wing_kheteratan
				has_country_modifier = isobelin_modifier_museum_wing_halessi
				has_country_modifier = isobelin_modifier_museum_wing_castanorian
				has_country_modifier = isobelin_modifier_museum_wing_bulwari
				has_country_modifier = isobelin_modifier_museum_wing_precursor	
			}	
		}
		effect = {
			add_prestige_or_monarch_power = {
				amount = 50
			}
			add_power_projection = {
				type = mission_rewards_power_projection
				amount = 25
			}
			every_owned_province = {
				limit = {
					area = coast_of_isobel_area
				}
				isobelin_scripted_effect_add_minority_size_if_present = yes
			}
		}
	}
}
isobelin_4_3 = {
	slot = 4
	generic = no
	ai = yes
	potential = {
		tag = G91
		#mission_completed = isobelin_mission_an_arising_city
	}
	has_country_shield = yes
	
	isobelin_mission_the_widows_park = {
		icon = austria_prospers
		
		position = 12

		required_missions = {
			isobelin_mission_an_arising_city
		}
		provinces_to_highlight = {
			province_id = 1036 #isobel island
			NOT = { has_building = town_hall }
		}
		trigger = {
			OR = {
				1036 = {
					has_building = town_hall
				}
				if = {
					limit = {
						has_dlc = "Mandate of Heaven"
					}
					coast_of_isobel_area = {
						prosperity = 100
					}
					splendor = 500
				}
				if = {
					limit = {
						NOT = {
							has_dlc = "Mandate of Heaven"
						}
					}
					government_reform_progress = 200
				}
			}
			if = {
				limit = { NOT = { has_dlc = "Cradle of Civilization" } }
				artist = 3
				prestige = 95
			}
			else = {
				artist = 5
			}
			treasury = 500
			crown_land_share = 90
		}
		effect = {
			add_treasury = -500
			if = {
				limit = {
					has_dlc = "Mandate of Heaven"
					NOT = {
						1036 = {
							has_building = town_hall
						}
					}
				}
				add_splendor = -500
			}
			if = {
				limit = {
					NOT = {
						has_dlc = "Mandate of Heaven"
						1036 = {
							has_building = town_hall
						}
					}
				}
				change_government_reform_progress = -200
			}
			add_country_modifier = {
				name = isobelin_modifier_the_widows_park
				duration = -1
			}
		}
	}


}
isobelin_5_3 = {
	slot = 5
	generic = no
	ai = yes
	potential = {
		tag = G91
		#mission_completed = isobelin_mission_an_arising_city
	}
	has_country_shield = yes
	
	isobelin_mission_the_thorned_lady = {
		icon = mission_thorned_lady
		
		position = 12

		required_missions = {
			isobelin_mission_an_arising_city
			isobelin_mission_the_question_of_slavery
		}
		provinces_to_highlight = {
			province_id = 33 #Toarnaire
		}
		trigger = {
			33 = {
				owner = {
					if = {
						limit = {
							is_enemy = ROOT
						}
						has_spy_network_from = {
							who = ROOT
							value = 50
						}
					}
					else = {
						AND = {
							has_opinion = {
								value = 150
								who = ROOT
							}
							owes_favors = { 
								who = ROOT 
								value = 20 
							}
						}
					}
				}
			}
			estate_loyalty = {
				estate = estate_mages
				loyalty = 60
			}
			treasury = 1000
		}
		effect = {
			add_treasury = -1000
			1036 = {
				add_province_modifier = { 
					name = isobelin_modifier_the_thorned_lady
					duration = -1
				}
			}
			country_event = {
				id = flavor_isobelin.300
			}
		}
	}
}